C:\Users\hp\Documents\NetBeansProject\DynamoOps\src\main\java\Dao\NewMethods.java
C:\Users\hp\Documents\NetBeansProject\DynamoOps\src\main\java\Connection\JavaConDynamoDB.java
C:\Users\hp\Documents\NetBeansProject\DynamoOps\src\main\java\Dao\MainClass.java
C:\Users\hp\Documents\NetBeansProject\DynamoOps\src\main\java\Model\StudentMarks.java
